// Jest Snapshot v1, https://goo.gl/fbAQLP

exports[`ChooseCard Matches snapshot 1`] = `"<span title=\\"Guess a card\\" class=\\"\\"><button class=\\"MuiButtonBase-root MuiButton-root MuiButton-outlined makeStyles-button-1 MuiButton-outlinedPrimary MuiButton-outlinedSizeSmall MuiButton-sizeSmall\\" tabindex=\\"0\\" type=\\"button\\"><span class=\\"MuiButton-label\\"><span class=\\"MuiButton-startIcon MuiButton-iconSizeSmall\\"><span role=\\"img\\" aria-label=\\"sheep\\">💂</span></span>Guard</span></button></span>"`;
